{
  "langs": [
    "ru",
    "en"
  ],
  "items": [
    [
      "bedroom",
      [
        "спальня",
        "bedroom"
      ]
    ],
    [
      "playroom",
      [
        "детская",
        "children's"
      ]
    ],
    [
      "kitchen",
      [
        "кухня",
        "kitchen"
      ]
    ],
    [
      "bathroom",
      [
        "ванная",
        "bathroom"
      ]
    ],
    [
      "hall",
      [
        "коридор",
        "hall"
      ]
    ],
    [
      "toilet",
      [
        "туалет",
        "toilet"
      ]
    ],
    [
      "t",
      [
        "температура",
        "temperature"
      ]
    ],
    [
      "h",
      [
        "влажность",
        "humidity"
      ]
    ],
    [
      "degree",
      [
        "°",
        "°"
      ]
    ],
    [
      "percent",
      [
        "%",
        "%"
      ]
    ],
    [
      "off",
      [
        "выкл",
        "off"
      ]
    ],
    [
      "on",
      [
        "вкл",
        "on"
      ]
    ],
    [
      "auto",
      [
        "авто",
        "auto"
      ]
    ],
    [
      "fan",
      [
        "вентиляция",
        "fan"
      ]
    ],
    [
      "light",
      [
        "свет",
        "light"
      ]
    ],
    [
      "table",
      [
        "стол",
        "table"
      ]
    ],
    [
      "backlight",
      [
        "подсветка",
        "backlight"
      ]
    ],
    [
      "save",
      [
        "сохр",
        "save"
      ]
    ],
    [
      "floor",
      [
        "пол",
        "floor"
      ]
    ],
    [
      "wardrobe",
      [
        "гардероб",
        "wardrobe"
      ]
    ],
    [
      "light2",
      [
        "свет 2",
        "light 2"
      ]
    ],
    [
      "balcony",
      [
        "балкон",
        "balcony"
      ]
    ],
    [
      "motion",
      [
        "движение",
        "motion"
      ]
    ],
    [
      "delay",
      [
        "задержка",
        "delay"
      ]
    ],
    [
      "light_2",
      [
        "подсветка",
        "backlight"
      ]
    ],
    [
      "floor2",
      [
        "пол 2",
        "floor 2"
      ]
    ],
    [
      "true",
      [
        "да",
        "yes"
      ]
    ],
    [
      "false",
      [
        "нет",
        "no"
      ]
    ]
  ]
}