<svg xmlns="http://www.w3.org/2000/svg" width="22" height="21.969" viewBox="0 0 22 21.969">
  <defs>
    <style>
      .cls-1 {
        fill: #fff;
        fill-rule: evenodd;
      }
    </style>
  </defs>
  <path class="cls-1" d="M182.413,118.523l-6.453-6.532,6.527-6.532a1.723,1.723,0,0,0,.513-1.248,1.462,1.462,0,0,0-.513-1.174l-1.54-1.542a1.726,1.726,0,0,0-2.42,0L172,108.027l-6.527-6.532a1.726,1.726,0,0,0-2.42,0l-1.54,1.542a1.733,1.733,0,0,0-.513,1.174,2.082,2.082,0,0,0,.514,1.248l6.526,6.532-6.527,6.532a1.729,1.729,0,0,0,0,2.422l1.54,1.541a1.726,1.726,0,0,0,2.42,0L172,115.954l6.527,6.532A1.731,1.731,0,0,0,179.7,123a1.458,1.458,0,0,0,1.173-.514l1.54-1.541a1.77,1.77,0,0,0,.514-1.248A1.46,1.46,0,0,0,182.413,118.523Zm-0.953,1.394-1.54,1.541c-0.147.147-.22,0.147-0.367,0l-7.04-7.045a0.57,0.57,0,0,0-.513-0.221,0.664,0.664,0,0,0-.513.221l-7.04,7.045c-0.147.147-.22,0.147-0.367,0l-1.54-1.541a0.329,0.329,0,0,1,0-.367l7.04-7.046a0.709,0.709,0,0,0,0-1.027l-7.04-7.046a0.27,0.27,0,0,1-.073-0.22c0-.074,0-0.147.073-0.147l1.54-1.541c0.147-.147.22-0.147,0.367,0l7.04,7.046a0.709,0.709,0,0,0,1.026,0l7.04-7.046c0.147-.147.22-0.147,0.367,0l1.54,1.541a0.227,0.227,0,0,1,.073.147c0,0.073,0,.147-0.073.147l-7.04,7.045a0.711,0.711,0,0,0,0,1.028l7.04,7.046a0.226,0.226,0,0,1,.073.146A0.356,0.356,0,0,1,181.46,119.917Z" transform="translate(-161 -101.031)"/>
</svg>
