<svg xmlns="http://www.w3.org/2000/svg" width="20.062" height="20.719" viewBox="0 0 20.062 20.719">
  <defs>
    <style>
      .cls-1 {
        fill: #fff;
        fill-rule: evenodd;
      }
    </style>
  </defs>
  <path id="reboot" class="cls-1" d="M60.25,143.727A10.084,10.084,0,1,1,67.7,126.891c0.123,0.137.237,0.283,0.352,0.426V123.56a0.558,0.558,0,1,1,1.115,0v5.6H63.6a0.561,0.561,0,0,1,0-1.121h3.611c-0.108-.136-0.215-0.272-0.33-0.4a8.973,8.973,0,1,0,2.295,6,0.558,0.558,0,1,1,1.115,0A10.071,10.071,0,0,1,60.25,143.727Z" transform="translate(-50.219 -123)"/>
</svg>
